{
    "android": {
        "debug": {
            "keystore": "./quasar-debug-key.jks",
            "storePassword": "android",
            "alias": "quasar-debug",
            "password" : "android",
            "keystoreType": "jks"
        },
        "release": {
            "keystore": "./quasar-release-key.jks",
            "storePassword": "android",
            "alias": "quasar-release",
            "password" : "android",
            "keystoreType": "jks"
        }
    }
}