<svg width="83" height="58" viewBox="0 0 83 58" fill="none" xmlns="http://www.w3.org/2000/svg">
<path fill-rule="evenodd" clip-rule="evenodd" d="M5.41304 0H77.587C80.5765 0 83 2.43445 83 5.4375V52.5625C83 55.5655 80.5765 58 77.587 58H5.41304C2.4235 58 0 55.5655 0 52.5625V48.9375V43.5V34.4375V29V5.4375C0 2.43445 2.4235 0 5.41304 0ZM3.6087 52.5625V48.9375V43.5V34.4375V29V5.4375C3.6087 4.43648 4.41653 3.625 5.41304 3.625H77.587C78.5835 3.625 79.3913 4.43648 79.3913 5.4375V52.5625C79.3913 53.5635 78.5835 54.375 77.587 54.375H5.41304C4.41653 54.375 3.6087 53.5635 3.6087 52.5625ZM25.4444 24C27.4081 24 29 22.3371 29 20.2857V14.7143C29 12.6629 27.4081 11 25.4444 11H16.5556C14.5919 11 13 12.6629 13 14.7143V20.2857C13 22.3371 14.5919 24 16.5556 24H25.4444ZM16.5556 14.7143H25.4444V20.2857H16.5556V14.7143ZM68.1824 47.3908C65.7589 50.2027 61.64 50.8241 58.4922 48.8527C57.3021 49.6042 55.9223 50.002 54.5141 49.9997C50.3642 49.9997 47 46.642 47 42.5C47 38.358 50.3642 35.0003 54.5141 35.0003C55.9223 34.998 57.3021 35.3958 58.4922 36.1473C61.64 34.1759 65.7589 34.7973 68.1824 37.6092C70.6059 40.4211 70.6059 44.5789 68.1824 47.3908ZM62.4702 46.4704C64.6652 46.4656 66.4434 44.6908 66.4483 42.5C66.4434 40.3092 64.6652 38.5344 62.4702 38.5296C61.9799 38.5307 61.4942 38.6235 61.0381 38.8031C62.3578 41.0917 62.3578 43.9083 61.0381 46.1969C61.4942 46.3765 61.9799 46.4693 62.4702 46.4704ZM50.536 42.5C50.536 40.3072 52.3171 38.5296 54.5141 38.5296C56.7111 38.5296 58.4922 40.3072 58.4922 42.5C58.4922 44.6928 56.7111 46.4704 54.5141 46.4704C52.3191 46.4656 50.5409 44.6908 50.536 42.5Z" fill="#0B1322"/>
</svg>
