[
 {
   "US": 6.5,
   "UK": 5.5,
   "Europe": 23
 },
 {
   "US": 7,
   "UK": 6,
   "Europe": 23.5
 },
 {
   "US": 7.5,
   "UK": 6.5,
   "Europe": 24
 },
 {
   "US": 8,
   "UK": 7,
   "Europe": 24.5
 },
 {
   "US": 8.5,
   "UK": 7.5,
   "Europe": 25
 },
 {
   "US": 9,
   "UK": 8,
   "Europe": 25.5
 },
 {
   "US": 9.5,
   "UK": 8.5,
   "Europe": 26
 },
 {
   "US": 10,
   "UK": 9,
   "Europe": 26.5
 },
 {
   "US": 10.5,
   "UK": 9.5,
   "Europe": 27
 },
 {
   "US": 11,
   "UK": 10,
   "Europe": 27.5
 },
 {
   "US": 11.5,
   "UK": 10.5,
   "Europe": 28
 },
 {
   "US": 12,
   "UK": 11,
   "Europe": 28.5
 },
 {
   "US": 12.5,
   "UK": 11.5,
   "Europe": 29
 },
 {
   "US": 13,
   "UK": 12,
   "Europe": 30
 },
 {
   "US": 1,
   "UK": 13,
   "Europe": 31
 },
 {
   "US": 1.5,
   "UK": 13,
   "Europe": 31.5
 },
 {
   "US": 2,
   "UK": 1,
   "Europe": 32.5
 },
 {
   "US": 2.5,
   "UK": 1.5,
   "Europe": 33
 },
 {
   "US": 3,
   "UK": 2,
   "Europe": 33.5
 }
]
