<?xml version="1.0" encoding="UTF-8"?>
<svg width="23px" height="24px" viewBox="0 0 23 24" version="1.1" xmlns="http://www.w3.org/2000/svg" xmlns:xlink="http://www.w3.org/1999/xlink">
    <!-- Generator: Sketch 54.1 (76490) - https://sketchapp.com -->
    <title>Search</title>
    <desc>Created with Sketch.</desc>
    <g id="Symbols" stroke="none" stroke-width="1" fill="none" fill-rule="evenodd">
        <g id="Mobile_Nav" transform="translate(-290.000000, -23.000000)" fill="#0B1322" fill-rule="nonzero">
            <g id="Group-2">
                <g id="Group" transform="translate(1.000000, 19.000000)">
                    <path d="M304.993191,22.7411255 C303.354866,23.851415 301.378176,24.5 299.25,24.5 C293.589081,24.5 289,19.9109187 289,14.25 C289,8.58908131 293.589081,4 299.25,4 C304.910919,4 309.5,8.58908131 309.5,14.25 C309.5,16.8851661 308.505584,19.288074 306.871539,21.1039384 C306.875675,21.1079634 306.87979,21.1120228 306.883883,21.1161165 L311.488932,25.7211649 C311.977087,26.2093202 311.977087,27.0007765 311.488932,27.4889318 C311.000776,27.9770872 310.20932,27.9770872 309.721165,27.4889318 L305.116117,22.8838835 C305.070965,22.8387322 305.02999,22.7909862 304.993191,22.7411255 Z M299.25,22.5 C303.806349,22.5 307.5,18.8063492 307.5,14.25 C307.5,9.69365081 303.806349,6 299.25,6 C294.693651,6 291,9.69365081 291,14.25 C291,18.8063492 294.693651,22.5 299.25,22.5 Z" id="Search"></path>
                </g>
            </g>
        </g>
    </g>
</svg>
