<svg xmlns="http://www.w3.org/2000/svg" width="100%" height="100%" >
<defs>
<linearGradient id="lgrad" x1="50%" y1="100%" x2="50%" y2="0%" >
<stop offset="74.9%" style="stop-color:rgb(255,255,255);stop-opacity:1" />
<stop offset="20.9%" style="stop-color:rgb(11,19,34);stop-opacity:1" />
<stop offset="30%" style="stop-color:rgb(11,19,34);stop-opacity:1" />
<stop offset="100%" style="stop-color:rgb(11,19,34);stop-opacity:1" />
</linearGradient>
</defs>
<rect x="0" y="0" width="100%" height="100%" fill="url(#lgrad)"/>
</svg>